{
  "questions": [
    {
      "id": 0,
      "isLeftAnswerIsCorrect": true,
    },
    {
      "id": 1,
      "isLeftAnswerIsCorrect": true,
    },
    {
      "id": 2,
      "isLeftAnswerIsCorrect": true,
    },
    {
      "id": 3,
      "isLeftAnswerIsCorrect": true,
    },
    {
      "id": 4,
      "isLeftAnswerIsCorrect": true,
    }
  ]
}